# Blender v2.75 (sub 0) OBJ File: 'points.blend'
# www.blender.org
o points.001
v 3.900000 0.099999 8.900000
v 3.900000 -0.100001 8.900000
v 3.900000 -0.100001 9.100000
v 4.100000 0.099999 8.900000
v 4.100000 -0.100001 8.900000
v 4.100000 0.099999 9.100000
v 4.100000 -0.100001 9.100000
v 3.900000 0.099999 9.100000
v 1.900000 0.099999 5.900000
v 1.900000 -0.100001 5.900000
v 1.900000 -0.100001 6.100000
v 2.100000 0.099999 5.900000
v 2.100000 -0.100001 5.900000
v 2.100000 0.099999 6.100000
v 2.100000 -0.100001 6.100000
v 1.900000 0.099999 6.100000
v -0.198004 0.100000 2.900000
v -0.198004 -0.100000 2.900000
v -0.198004 -0.100001 3.100000
v 0.001996 0.100000 2.900000
v 0.001996 -0.100000 2.900000
v 0.001996 0.099999 3.100000
v 0.001996 -0.100001 3.100000
v -0.198004 0.099999 3.100000
v 3.900000 0.100001 -9.100000
v 3.900000 -0.099999 -9.100000
v 3.900000 -0.099999 -8.900000
v 4.100000 0.100001 -9.100000
v 4.100000 -0.099999 -9.100000
v 4.100000 0.100001 -8.900000
v 4.100000 -0.099999 -8.900000
v 3.900000 0.100001 -8.900000
v 1.900000 0.100001 -6.100000
v 1.900000 -0.099999 -6.100000
v 1.900000 -0.099999 -5.900000
v 2.100000 0.100001 -6.100000
v 2.100000 -0.099999 -6.100000
v 2.100000 0.100001 -5.900000
v 2.100000 -0.099999 -5.900000
v 1.900000 0.100001 -5.900000
v -0.198004 0.100001 -3.100000
v -0.198004 -0.099999 -3.100000
v -0.198004 -0.100000 -2.900000
v 0.001996 0.100001 -3.100000
v 0.001996 -0.099999 -3.100000
v 0.001996 0.100000 -2.900000
v 0.001996 -0.100000 -2.900000
v -0.198004 0.100000 -2.900000
v -1.289467 0.100000 -0.100000
v -1.289467 -0.100000 -0.100000
v -1.289467 -0.100000 0.100000
v -1.089467 0.100000 -0.100000
v -1.089467 -0.100000 -0.100000
v -1.089467 0.100000 0.100000
v -1.089467 -0.100000 0.100000
v -1.289467 0.100000 0.100000
vn -0.577400 0.577400 -0.577400
vn -0.577400 -0.577400 -0.577400
vn -0.577400 -0.577400 0.577400
vn 0.577400 0.577400 -0.577400
vn 0.577400 -0.577400 -0.577400
vn 0.577400 0.577400 0.577400
vn 0.577400 -0.577400 0.577400
vn -0.577400 0.577400 0.577400
vn -0.577400 -0.577300 -0.577400
vn -0.577400 0.577300 0.577400
s 1
f 1//1 2//2 3//3
f 4//4 5//5 2//2
f 6//6 7//7 5//5
f 8//8 3//3 7//7
f 2//2 5//5 7//7
f 4//4 1//1 8//8
f 8//8 1//1 3//3
f 1//1 4//4 2//2
f 4//4 6//6 5//5
f 6//6 8//8 7//7
f 3//3 2//2 7//7
f 6//6 4//4 8//8
f 9//1 10//2 11//3
f 12//4 13//5 10//2
f 14//6 15//7 13//5
f 16//8 11//3 15//7
f 10//2 13//5 15//7
f 12//4 9//1 16//8
f 16//8 9//1 11//3
f 9//1 12//4 10//2
f 12//4 14//6 13//5
f 14//6 16//8 15//7
f 11//3 10//2 15//7
f 14//6 12//4 16//8
f 17//1 18//2 19//3
f 20//4 21//5 18//2
f 22//6 23//7 21//5
f 24//8 19//3 23//7
f 18//2 21//5 23//7
f 20//4 17//1 24//8
f 24//8 17//1 19//3
f 17//1 20//4 18//2
f 20//4 22//6 21//5
f 22//6 24//8 23//7
f 19//3 18//2 23//7
f 22//6 20//4 24//8
f 25//1 26//2 27//3
f 28//4 29//5 26//2
f 30//6 31//7 29//5
f 32//8 27//3 31//7
f 26//2 29//5 31//7
f 28//4 25//1 32//8
f 32//8 25//1 27//3
f 25//1 28//4 26//2
f 28//4 30//6 29//5
f 30//6 32//8 31//7
f 27//3 26//2 31//7
f 30//6 28//4 32//8
f 33//1 34//2 35//3
f 36//4 37//5 34//2
f 38//6 39//7 37//5
f 40//8 35//3 39//7
f 34//2 37//5 39//7
f 36//4 33//1 40//8
f 40//8 33//1 35//3
f 33//1 36//4 34//2
f 36//4 38//6 37//5
f 38//6 40//8 39//7
f 35//3 34//2 39//7
f 38//6 36//4 40//8
f 41//1 42//2 43//3
f 44//4 45//5 42//2
f 46//6 47//7 45//5
f 48//8 43//3 47//7
f 42//2 45//5 47//7
f 44//4 41//1 48//8
f 48//8 41//1 43//3
f 41//1 44//4 42//2
f 44//4 46//6 45//5
f 46//6 48//8 47//7
f 43//3 42//2 47//7
f 46//6 44//4 48//8
f 49//1 50//9 51//3
f 52//4 53//5 50//9
f 54//6 55//7 53//5
f 56//10 51//3 55//7
f 50//9 53//5 55//7
f 52//4 49//1 56//10
f 56//10 49//1 51//3
f 49//1 52//4 50//9
f 52//4 54//6 53//5
f 54//6 56//10 55//7
f 51//3 50//9 55//7
f 54//6 52//4 56//10
