********************************************************************************
Field Output Report, written Sun Dec 06 20:43:43 2015

Source 1
---------

   ODB: H:/AbaqusWorkspace/cube-old.odb
   Step: STEP-1
   Frame: Increment     25960: Step Time =    5.000

Loc 1 : Nodal values from source 1

Output sorted by column "Node Label".

Field Output reported at nodes for part: CUBE_PART-INST

            Node            U.U1            U.U2            U.U3
           Label          @Loc 1          @Loc 1          @Loc 1
-----------------------------------------------------------------
               1              0.              0.              0.
               2     300.000E-03     300.000E-03     300.000E-03
               3              0.              0.              0.
               4     300.000E-03     300.000E-03     300.000E-03
               5              0.              0.              0.
               6     300.000E-03     300.000E-03     300.000E-03
               7              0.              0.              0.
               8     300.000E-03     300.000E-03     300.000E-03
               9     43.5484E-03     111.274E-03     111.136E-03
              10              0.              0.              0.
              11     300.000E-03     300.000E-03     300.000E-03
              12     150.111E-03     186.053E-03     120.000E-03
              13              0.              0.              0.
              14     150.187E-03     119.628E-03     185.333E-03
              15     255.407E-03     194.373E-03     194.740E-03
              16     300.000E-03     300.000E-03     300.000E-03
              17              0.              0.              0.
              18              0.              0.              0.
              19     300.000E-03     300.000E-03     300.000E-03
              20     300.000E-03     300.000E-03     300.000E-03
              21    -7.84633E-03     46.6775E-03     44.9174E-03
              22     140.338E-03     186.880E-03     185.731E-03
              23              0.              0.              0.
              24     300.000E-03     300.000E-03     300.000E-03
              25     82.6921E-03     99.1445E-03     42.0935E-03
              26              0.              0.              0.
              27     81.9867E-03     41.2689E-03     98.6839E-03
              28     305.244E-03     258.137E-03     258.557E-03
              29     300.000E-03     300.000E-03     300.000E-03
              30              0.              0.              0.
              31              0.              0.              0.
              32     300.000E-03     300.000E-03     300.000E-03
              33     300.000E-03     300.000E-03     300.000E-03
              34     11.5071E-03     76.9137E-03     76.2584E-03
              35     208.611E-03     230.379E-03     231.320E-03
              36              0.              0.              0.
              37     300.000E-03     300.000E-03     300.000E-03
              38     44.7852E-03     54.1242E-03     11.9609E-03
              39              0.              0.              0.
              40     45.0495E-03     10.4775E-03     53.0675E-03
              41     310.861E-03     281.978E-03     283.376E-03
              42     300.000E-03     300.000E-03     300.000E-03
              43              0.              0.              0.
              44              0.              0.              0.
              45     300.000E-03     300.000E-03     300.000E-03
              46     300.000E-03     300.000E-03     300.000E-03
              47     26.3230E-03     93.9058E-03     92.6006E-03
              48     248.191E-03     256.964E-03     258.454E-03
              49              0.              0.              0.
              50     300.000E-03     300.000E-03     300.000E-03
              51     22.3286E-03     28.8276E-03     1.40205E-03
              52              0.              0.              0.
              53     22.4990E-03     1.56190E-03     28.1419E-03
              54     306.472E-03     291.542E-03     292.273E-03
              55     300.000E-03     300.000E-03     300.000E-03
              56              0.              0.              0.
              57              0.              0.              0.
              58     300.000E-03     300.000E-03     300.000E-03
              59     300.000E-03     300.000E-03     300.000E-03
              60              0.              0.              0.
              61     300.000E-03     300.000E-03     300.000E-03
              62     217.530E-03     262.853E-03     205.240E-03
              63              0.              0.              0.
              64     218.047E-03     205.000E-03     261.945E-03
              65     159.928E-03     117.996E-03     117.938E-03
              66     300.000E-03     300.000E-03     300.000E-03
              67              0.              0.              0.
              68              0.              0.              0.
              69     300.000E-03     300.000E-03     300.000E-03
              70     300.000E-03     300.000E-03     300.000E-03
              71    -14.6808E-03     19.9576E-03     19.1590E-03
              72     87.1129E-03     147.899E-03     147.021E-03
              73              0.              0.              0.
              74     300.000E-03     300.000E-03     300.000E-03
              75     116.651E-03     143.164E-03     79.5841E-03
              76              0.              0.              0.
              77     116.364E-03     78.7662E-03     142.973E-03
              78     285.730E-03     227.037E-03     227.888E-03
              79     300.000E-03     300.000E-03     300.000E-03
              80              0.              0.              0.
              81              0.              0.              0.
              82     300.000E-03     300.000E-03     300.000E-03
              83     300.000E-03     300.000E-03     300.000E-03
              84     491.083E-06     61.7127E-03     59.8790E-03
              85     172.369E-03     206.908E-03     207.390E-03
              86              0.              0.              0.
              87     300.000E-03     300.000E-03     300.000E-03
              88     64.3871E-03     76.8053E-03     26.2264E-03
              89              0.              0.              0.
              90     64.1020E-03     24.6788E-03     75.1618E-03
              91     309.891E-03     271.677E-03     270.911E-03
              92     300.000E-03     300.000E-03     300.000E-03
              93              0.              0.              0.
              94              0.              0.              0.
              95     300.000E-03     300.000E-03     300.000E-03
              96     300.000E-03     300.000E-03     300.000E-03
              97     183.704E-03     162.089E-03     225.542E-03
              98     253.987E-03     249.190E-03     290.617E-03
              99              0.              0.              0.
             100              0.              0.              0.
             101     183.447E-03     225.903E-03     162.506E-03
             102     254.409E-03     291.124E-03     248.472E-03
             103     300.000E-03     300.000E-03     300.000E-03
             104     300.000E-03     300.000E-03     300.000E-03
             105              0.              0.              0.
             106              0.              0.              0.
             107     92.8737E-03     72.7380E-03     73.2269E-03
             108     213.454E-03     157.457E-03     158.511E-03
             109     300.000E-03     300.000E-03     300.000E-03
             110     300.000E-03     300.000E-03     300.000E-03
             111              0.              0.              0.
             112              0.              0.              0.
             113     300.000E-03     300.000E-03     300.000E-03
             114     300.000E-03     300.000E-03     300.000E-03
             115    -10.5954E-03     8.75404E-03     8.17566E-03
             116    -12.1507E-03     33.0431E-03     32.0131E-03
             117     112.219E-03     167.561E-03     165.669E-03
             118              0.              0.              0.
             119     300.000E-03     300.000E-03     300.000E-03
             120     100.049E-03     121.223E-03     60.3988E-03
             121              0.              0.              0.
             122     100.177E-03     59.6689E-03     121.041E-03
             123     296.572E-03     243.162E-03     243.161E-03
             124     300.000E-03     300.000E-03     300.000E-03
             125              0.              0.              0.
             126              0.              0.              0.
             127     300.000E-03     300.000E-03     300.000E-03
             128     300.000E-03     300.000E-03     300.000E-03
             129              0.              0.              0.
             130     52.4073E-03     44.0322E-03     45.4690E-03
             131     129.068E-03     95.2814E-03     96.8312E-03
             132     236.834E-03     175.960E-03     177.058E-03
             133     300.000E-03     300.000E-03     300.000E-03
             134     300.000E-03     300.000E-03     300.000E-03
             135     300.000E-03     300.000E-03     300.000E-03
             136              0.              0.              0.
             137              0.              0.              0.
             138     300.000E-03     300.000E-03     300.000E-03
             139     300.000E-03     300.000E-03     300.000E-03
             140              0.              0.              0.
             141              0.              0.              0.
             142     300.000E-03     300.000E-03     300.000E-03
             143     300.000E-03     300.000E-03     300.000E-03
             144     64.1146E-03     129.602E-03     128.720E-03
             145              0.              0.              0.
             146     300.000E-03     300.000E-03     300.000E-03
             147     134.127E-03     164.857E-03     99.7257E-03
             148              0.              0.              0.
             149     132.412E-03     98.6779E-03     164.445E-03
             150     272.102E-03     211.494E-03     211.774E-03
             151     300.000E-03     300.000E-03     300.000E-03
             152              0.              0.              0.
             153              0.              0.              0.
             154     300.000E-03     300.000E-03     300.000E-03
             155     300.000E-03     300.000E-03     300.000E-03
             156              0.              0.              0.
             157              0.              0.              0.
             158     300.000E-03     300.000E-03     300.000E-03
             159     300.000E-03     300.000E-03     300.000E-03
             160     233.709E-03     278.086E-03     226.986E-03
             161     277.664E-03     299.201E-03     272.954E-03
             162     166.842E-03     206.339E-03     141.204E-03
             163              0.              0.              0.
             164              0.              0.              0.
             165     235.561E-03     226.444E-03     278.384E-03
             166     275.175E-03     272.273E-03     298.496E-03
             167     166.365E-03     140.793E-03     205.884E-03
             168     200.033E-03     183.331E-03     244.299E-03
             169              0.              0.              0.
             170              0.              0.              0.
             171     198.861E-03     245.339E-03     183.604E-03
             172     300.000E-03     300.000E-03     300.000E-03
             173     300.000E-03     300.000E-03     300.000E-03
             174              0.              0.              0.
             175     188.079E-03     138.728E-03     138.321E-03
             176     300.000E-03     300.000E-03     300.000E-03
             177              0.              0.              0.
             178              0.              0.              0.
             179     300.000E-03     300.000E-03     300.000E-03
             180     300.000E-03     300.000E-03     300.000E-03
             181     300.000E-03     300.000E-03     300.000E-03
             182     300.000E-03     300.000E-03     300.000E-03
             183     300.000E-03     300.000E-03     300.000E-03
             184     300.000E-03     300.000E-03     300.000E-03
             185              0.              0.              0.
             186              0.              0.              0.
             187              0.              0.              0.
             188              0.              0.              0.
             189              0.              0.              0.
             190     98.2127E-03     149.074E-03     115.648E-03
             191     300.000E-03     300.000E-03     300.000E-03
             192     29.6421E-03     66.2953E-03     46.4514E-03
             193     300.000E-03     300.000E-03     300.000E-03
             194     300.000E-03     300.000E-03     300.000E-03
             195     184.873E-03     232.514E-03     192.199E-03
             196     300.000E-03     300.000E-03     300.000E-03
             197     69.6058E-03     122.423E-03     105.701E-03
             198     160.991E-03     143.910E-03     116.693E-03
             199     203.543E-03     156.375E-03     191.428E-03
             200     300.000E-03     300.000E-03     300.000E-03
             201     97.2557E-03     114.754E-03     148.798E-03
             202     68.9158E-03     111.042E-03     68.7629E-03
             203     257.227E-03     218.664E-03     234.362E-03
             204     176.738E-03     129.473E-03     179.332E-03
             205     100.864E-03     56.7400E-03     102.927E-03
             206     252.374E-03     221.439E-03     255.345E-03
             207     157.864E-03     203.288E-03     173.885E-03
             208     86.7804E-03     86.8323E-03     132.877E-03
             209     188.377E-03     192.090E-03     231.855E-03
             210     32.5652E-03     33.7545E-03     62.0855E-03
             211     26.8751E-03     52.0670E-03     24.1074E-03
             212     217.263E-03     183.109E-03     169.247E-03
             213     208.392E-03     256.427E-03     209.642E-03
             214     283.710E-03     260.583E-03     274.216E-03
             215     278.677E-03     256.848E-03     276.124E-03
             216     20.2470E-03     46.1612E-03     25.1684E-03
             217     186.420E-03     188.374E-03     238.627E-03
             218     236.402E-03     236.925E-03     198.426E-03
             219     270.614E-03     277.593E-03     249.130E-03
             220     70.0457E-03     105.518E-03     121.730E-03
             221     300.000E-03     300.000E-03     300.000E-03
             222     130.602E-03     138.521E-03     184.737E-03
             223     105.671E-03     158.396E-03     130.631E-03
             224     300.000E-03     300.000E-03     300.000E-03
             225     118.297E-03     168.673E-03     152.752E-03
             226     300.000E-03     300.000E-03     300.000E-03
             227     300.000E-03     300.000E-03     300.000E-03
             228     300.000E-03     300.000E-03     300.000E-03
             229     188.716E-03     198.793E-03     146.876E-03
             230     300.000E-03     300.000E-03     300.000E-03
             231     300.000E-03     300.000E-03     300.000E-03
             232     185.440E-03     138.910E-03     160.863E-03
             233     93.1782E-03     91.7031E-03     59.0148E-03
             234     17.6345E-03     42.7147E-03     51.6566E-03
             235     42.3103E-03     77.9802E-03     45.7573E-03
             236     254.902E-03     230.079E-03     269.831E-03
             237     300.000E-03     300.000E-03     300.000E-03
             238     63.7425E-03     74.3507E-03     106.973E-03
             239     117.240E-03     77.6748E-03     111.632E-03
             240     22.1899E-03     34.2960E-03     52.8074E-03
             241     300.000E-03     300.000E-03     300.000E-03
             242     12.2618E-03     29.3549E-03     12.2447E-03
             243     154.343E-03     105.675E-03     149.031E-03
             244     193.829E-03     146.341E-03     188.482E-03
             245     8.56540E-03     20.3444E-03     29.6525E-03
             246     12.4779E-03     43.8412E-03     35.1949E-03
             247     168.605E-03     174.522E-03     221.191E-03
             248     220.056E-03     251.657E-03     219.659E-03
             249     274.986E-03     271.282E-03     249.514E-03
             250     247.082E-03     209.071E-03     237.132E-03
             251     300.000E-03     300.000E-03     300.000E-03
             252     197.650E-03     229.994E-03     211.977E-03
             253     172.780E-03     164.905E-03     123.602E-03
             254     300.000E-03     300.000E-03     300.000E-03
             255     198.549E-03     196.658E-03     153.084E-03
             256     200.287E-06     22.2643E-03     24.5358E-03
             257     217.450E-03     173.370E-03     197.873E-03
             258     128.382E-03     182.269E-03     135.003E-03
             259     300.000E-03     300.000E-03     300.000E-03
             260     58.4595E-03     86.9810E-03     42.4326E-03
             261     238.122E-03     267.877E-03     235.714E-03
             262     136.584E-03     132.605E-03     187.270E-03
             263     300.000E-03     300.000E-03     300.000E-03
             264     106.815E-03     92.3389E-03     148.065E-03
             265     110.750E-03     67.2147E-03     107.512E-03
             266     128.157E-03     79.6365E-03     133.959E-03
             267     89.5647E-03     86.0922E-03     62.9728E-03
             268     36.2589E-03     44.1358E-03     70.0980E-03
             269     65.5849E-03     27.2700E-03     68.4531E-03
             270     300.000E-03     300.000E-03     300.000E-03
             271     103.919E-03     104.120E-03     58.7195E-03
             272     63.6619E-03     110.882E-03     87.8039E-03
             273     144.377E-03     196.020E-03     159.317E-03
             274     300.000E-03     300.000E-03     300.000E-03
             275     300.000E-03     300.000E-03     300.000E-03
             276     300.000E-03     300.000E-03     300.000E-03
             277     94.6189E-03     106.529E-03     146.949E-03
             278     58.3076E-03     61.6572E-03     98.3644E-03
             279     289.452E-03     275.429E-03     286.792E-03
             280     261.217E-03     231.061E-03     258.190E-03
             281     282.094E-03     263.666E-03     284.781E-03
             282     259.648E-03     227.018E-03     247.197E-03
             283     300.000E-03     300.000E-03     300.000E-03
             284     247.545E-03     284.052E-03     245.431E-03
             285     49.4943E-03     82.1735E-03     43.6866E-03
             286     300.000E-03     300.000E-03     300.000E-03
             287              0.              0.              0.
             288              0.              0.              0.
             289              0.              0.              0.
             290              0.              0.              0.
             291              0.              0.              0.
             292              0.              0.              0.
             293              0.              0.              0.
             294              0.              0.              0.
             295              0.              0.              0.
             296              0.              0.              0.
             297              0.              0.              0.
             298              0.              0.              0.
             299              0.              0.              0.
             300              0.              0.              0.
             301     300.000E-03     300.000E-03     300.000E-03
             302     300.000E-03     300.000E-03     300.000E-03
             303     69.8611E-03     127.778E-03     117.680E-03
             304     161.356E-03     203.143E-03     181.328E-03
             305     103.080E-03     156.247E-03     135.065E-03
             306     182.723E-03     227.213E-03     190.635E-03
             307     292.536E-03     269.084E-03     274.807E-03
             308     229.238E-03     212.744E-03     186.687E-03
             309     32.6693E-03     86.3488E-03     76.6747E-03
             310     265.596E-03     241.049E-03     272.482E-03
             311     217.095E-03     246.630E-03     221.741E-03
             312     55.5673E-03     74.7094E-03     99.6946E-03
             313     60.9805E-03     31.5553E-03     63.8835E-03
             314     82.0825E-03     107.621E-03     132.688E-03
             315     294.686E-03     279.354E-03     285.984E-03
             316     10.0154E-03     55.0455E-03     49.8701E-03
             317     213.215E-03     203.342E-03     168.972E-03
             318     268.894E-03     241.102E-03     231.211E-03
             319     32.7199E-03     53.0699E-03     69.4402E-03
             320     219.649E-03     260.183E-03     220.432E-03
             321     300.000E-03     300.000E-03     300.000E-03
             322     273.023E-03     261.037E-03     290.284E-03
             323     115.542E-03     117.909E-03     166.562E-03
             324     186.888E-03     172.625E-03     140.811E-03
             325     300.000E-03     300.000E-03     300.000E-03
             326     97.4126E-03     137.106E-03     83.6106E-03
             327     12.7257E-03     17.1700E-03     31.8207E-03
             328     99.3867E-03     52.3397E-03     102.457E-03
             329     300.000E-03     300.000E-03     300.000E-03
             330     300.000E-03     300.000E-03     300.000E-03
             331     117.159E-03     110.347E-03     80.1999E-03
             332     47.8906E-03     35.1329E-03     74.4246E-03
             333     31.4435E-03     74.1516E-03     81.5880E-03
             334     300.000E-03     300.000E-03     300.000E-03
             335     40.7720E-03     78.9817E-03     51.6403E-03
             336     300.000E-03     300.000E-03     300.000E-03
             337     8.23371E-03     13.4086E-03     24.7646E-03
             338     228.578E-03     187.033E-03     224.304E-03
             339     300.000E-03     300.000E-03     300.000E-03
             340     274.866E-03     248.501E-03     266.603E-03
             341     56.1239E-03     59.2168E-03     37.7462E-03
             342     300.000E-03     300.000E-03     300.000E-03
             343     9.65799E-03     46.4057E-03     50.5748E-03
             344     169.562E-03     223.186E-03     176.958E-03
             345     268.303E-03     285.834E-03     254.102E-03
             346     11.1386E-03     31.5405E-03     18.6422E-03
             347     128.592E-03     182.546E-03     140.924E-03
             348     229.208E-03     230.845E-03     265.978E-03
             349     234.858E-03     194.180E-03     219.931E-03
             350     235.584E-03     250.899E-03     241.036E-03
             351     300.000E-03     300.000E-03     300.000E-03
             352     14.4351E-03     41.5844E-03     29.6936E-03
             353     238.787E-03     237.271E-03     268.309E-03
             354     208.616E-03     172.694E-03     224.042E-03
             355     207.042E-03     184.025E-03     160.969E-03
             356     167.950E-03     185.138E-03     207.943E-03
             357     139.641E-03     152.466E-03     191.892E-03
             358     148.191E-03     192.449E-03     181.336E-03
             359     300.000E-03     300.000E-03     300.000E-03
             360     166.805E-03     219.740E-03     164.492E-03
             361     233.539E-03     185.869E-03     200.097E-03
             362     231.509E-03     247.444E-03     201.286E-03
             363     88.3893E-03     138.306E-03     98.7649E-03
             364     247.669E-03     256.306E-03     217.940E-03
             365     199.684E-03     222.271E-03     167.015E-03
             366     109.356E-03     78.3534E-03     98.0091E-03
             367     300.000E-03     300.000E-03     300.000E-03
             368     170.183E-03     124.782E-03     156.509E-03
             369     143.737E-03     93.5952E-03     142.225E-03
             370     250.974E-03     271.159E-03     246.220E-03
             371     37.7472E-03     79.9524E-03     65.5859E-03
             372     285.886E-03     287.573E-03     269.083E-03
             373     300.000E-03     300.000E-03     300.000E-03
             374     65.9791E-03     112.232E-03     82.8482E-03
             375     300.000E-03     300.000E-03     300.000E-03
             376     223.087E-03     197.308E-03     249.029E-03
             377     2.48635E-03     14.5914E-03     19.4634E-03
             378     300.000E-03     300.000E-03     300.000E-03
             379     12.8323E-03     12.5706E-03     28.9212E-03
             380     28.6852E-03     43.7830E-03     13.0849E-03
             381     43.5927E-03     73.7281E-03     88.0619E-03
             382     134.858E-03     155.402E-03     184.988E-03
             383     300.000E-03     300.000E-03     300.000E-03
             384     159.695E-03     116.688E-03     174.418E-03
             385     300.000E-03     300.000E-03     300.000E-03
             386              0.              0.              0.
             387     300.000E-03     300.000E-03     300.000E-03
             388     86.0106E-03     79.2974E-03     64.5195E-03
             389     300.000E-03     300.000E-03     300.000E-03
             390     118.058E-03     114.907E-03     73.3732E-03
             391     140.002E-03     147.864E-03     92.7137E-03
             392     59.0732E-03     64.0686E-03     26.1248E-03
             393     300.000E-03     300.000E-03     300.000E-03
             394     300.000E-03     300.000E-03     300.000E-03
             395     59.5009E-03     108.314E-03     116.325E-03
             396     246.373E-03     263.967E-03     244.071E-03
             397     143.329E-03     133.857E-03     98.8162E-03
             398     213.622E-03     261.957E-03     210.817E-03
             399              0.              0.              0.
             400              0.              0.              0.
             401              0.              0.              0.
             402              0.              0.              0.
             403              0.              0.              0.
             404              0.              0.              0.
             405              0.              0.              0.
             406              0.              0.              0.
             407              0.              0.              0.
             408              0.              0.              0.
             409              0.              0.              0.
             410              0.              0.              0.
             411              0.              0.              0.
             412              0.              0.              0.
             413     300.000E-03     300.000E-03     300.000E-03
             414              0.              0.              0.
             415              0.              0.              0.
             416              0.              0.              0.
             417              0.              0.              0.
             418     278.404E-03     248.553E-03     260.198E-03
             419     301.455E-03     284.466E-03     286.378E-03
             420     114.030E-03     143.685E-03     164.414E-03
             421     250.765E-03     281.011E-03     249.040E-03
             422     48.8943E-03     22.7194E-03     51.7182E-03
             423     62.3826E-03     37.9254E-03     65.8855E-03
             424     296.014E-03     276.464E-03     271.836E-03
             425     257.044E-03     216.268E-03     208.787E-03
             426     84.4117E-03     114.535E-03     61.3325E-03
             427     169.706E-03     121.971E-03     159.203E-03
             428     162.107E-03     134.776E-03     120.403E-03
             429     55.9450E-03     60.7045E-03     27.3558E-03
             430     102.420E-03     107.108E-03     55.2497E-03
             431              0.              0.              0.
             432              0.              0.              0.
             433     94.0822E-03     150.446E-03     141.945E-03
             434              0.              0.              0.
             435     620.857E-06     21.8936E-03     18.7585E-03
             436     255.450E-03     270.795E-03     232.343E-03
             437     130.539E-03     92.2068E-03     120.727E-03
             438     241.411E-03     216.343E-03     198.875E-03
             439     279.755E-03     243.016E-03     238.602E-03
             440     208.051E-03     157.620E-03     169.110E-03
             441     167.654E-03     169.502E-03     119.216E-03
             442     136.006E-03     110.114E-03     101.099E-03
             443     71.4784E-03     88.5747E-03     119.370E-03
             444     300.000E-03     300.000E-03     300.000E-03
             445     70.8818E-03     46.5766E-03     71.3714E-03
             446     172.854E-03     167.125E-03     223.048E-03
             447     206.298E-03     163.559E-03     156.041E-03
             448     290.439E-03     276.592E-03     290.267E-03
             449     102.782E-03     151.193E-03     102.683E-03
             450              0.              0.              0.
             451     242.145E-03     190.126E-03     197.583E-03
             452     267.880E-03     253.341E-03     236.108E-03
             453     249.180E-03     239.012E-03     212.294E-03
             454     150.396E-03     110.036E-03     131.570E-03
             455     159.862E-03     178.203E-03     119.107E-03
             456     283.542E-03     269.743E-03     291.401E-03
             457     26.3391E-03     9.84474E-03     39.9578E-03
             458     74.0663E-03     63.6265E-03     111.625E-03
             459     53.6262E-03     55.8757E-03     38.0774E-03
             460     300.000E-03     300.000E-03     300.000E-03
             461              0.              0.              0.
             462     180.502E-03     145.275E-03     203.654E-03
             463     215.630E-03     217.693E-03     248.099E-03
             464     213.222E-03     221.169E-03     236.181E-03
             465     300.000E-03     300.000E-03     300.000E-03
             466     300.000E-03     300.000E-03     300.000E-03
             467     103.315E-03     145.793E-03     156.448E-03
             468     238.590E-03     236.136E-03     276.579E-03
             469     237.667E-03     204.843E-03     246.668E-03
             470              0.              0.              0.
             471     284.507E-03     292.430E-03     273.026E-03
             472     269.529E-03     225.324E-03     232.783E-03
             473     4.29519E-03     21.6586E-03     14.7390E-03
             474     210.077E-03     169.307E-03     214.426E-03
             475     300.000E-03     300.000E-03     300.000E-03
             476     71.6663E-03     54.3466E-03     67.6552E-03
             477     132.933E-03     181.010E-03     124.220E-03
             478     56.4039E-03     40.4646E-03     59.9526E-03
             479              0.              0.              0.
             480     145.491E-03     142.585E-03     96.3918E-03
             481     282.813E-03     267.786E-03     256.648E-03
             482     217.134E-03     224.310E-03     179.791E-03
             483     61.3789E-03     105.830E-03     71.5398E-03
             484     300.000E-03     300.000E-03     300.000E-03
             485     14.9324E-03     28.8518E-03     8.24882E-03
             486     300.000E-03     300.000E-03     300.000E-03
             487     19.7775E-03     12.9141E-03     36.8364E-03
             488     300.000E-03     300.000E-03     300.000E-03
             489     300.000E-03     300.000E-03     300.000E-03
             490     64.3428E-03     66.9365E-03     35.0927E-03
             491              0.              0.              0.
             492              0.              0.              0.
             493              0.              0.              0.
             494              0.              0.              0.
             495              0.              0.              0.
             496     138.089E-03     122.550E-03     100.289E-03
             497              0.              0.              0.
             498     206.403E-03     204.210E-03     255.545E-03
             499     295.075E-03     265.110E-03     262.319E-03
             500     288.578E-03     282.789E-03     271.215E-03
             501     53.0299E-03     32.9555E-03     58.1862E-03
             502     239.077E-03     192.212E-03     186.097E-03
             503              0.              0.              0.
             504     256.097E-03     252.850E-03     224.060E-03
             505     155.177E-03     114.577E-03     126.678E-03
             506     300.000E-03     300.000E-03     300.000E-03
             507     232.212E-03     231.234E-03     254.787E-03
             508              0.              0.              0.
             509     205.911E-03     209.621E-03     244.001E-03
             510     173.793E-03     186.042E-03     216.101E-03
             511     250.634E-03     247.116E-03     271.838E-03
             512     289.524E-03     253.003E-03     257.573E-03
             513     258.577E-03     255.057E-03     284.691E-03
             514     151.224E-03     182.402E-03     192.865E-03
             515     300.000E-03     300.000E-03     300.000E-03
             516     294.591E-03     286.844E-03     281.056E-03
             517     133.419E-03     134.877E-03     84.9335E-03
             518     47.9746E-03     53.8811E-03     29.1631E-03
             519              0.              0.              0.
             520              0.              0.              0.
             521     180.741E-03     154.888E-03     135.534E-03
             522     290.173E-03     288.474E-03     276.370E-03
             523              0.              0.              0.
             524     252.820E-03     248.225E-03     271.492E-03
             525     164.470E-03     176.519E-03     211.594E-03
             526              0.              0.              0.
             527              0.              0.              0.
             528     238.435E-03     236.764E-03     251.424E-03
             529     88.1943E-03     76.7367E-03     98.6692E-03
             530     69.3553E-03     76.0093E-03     52.5373E-03
             531     51.5795E-03     63.1923E-03     49.1708E-03
             532     219.069E-03     214.339E-03     220.699E-03
             533     286.955E-03     297.524E-03     279.406E-03
             534     216.564E-03     232.620E-03     210.237E-03
             535     168.875E-03     154.103E-03     154.205E-03
             536     27.0068E-03     32.1326E-03     36.2141E-03
             537     246.652E-03     251.256E-03     239.611E-03
             538     84.9368E-03     59.0835E-03     100.399E-03
             539     263.705E-03     258.478E-03     263.134E-03
             540     75.1397E-03     65.7831E-03     77.1773E-03
             541     66.8764E-03     67.9789E-03     56.6206E-03
             542     261.215E-03     253.607E-03     268.338E-03
             543     255.927E-03     261.369E-03     253.684E-03
             544     112.579E-03     118.169E-03     127.387E-03
             545              0.              0.              0.
             546     24.8061E-03     37.1275E-03     32.5543E-03
             547     79.4239E-03     72.2116E-03     75.5273E-03
             548     301.140E-03     287.203E-03     286.817E-03
             549     207.761E-03     219.334E-03     215.856E-03
             550     184.575E-03     178.416E-03     203.448E-03
             551     115.001E-03     142.556E-03     142.654E-03
             552     167.082E-03     142.574E-03     140.896E-03
             553     68.0562E-03     87.6085E-03     77.4670E-03
             554     41.9126E-03     31.3308E-03     50.7433E-03
             555     135.412E-03     157.394E-03     116.921E-03
             556     41.3703E-03     101.385E-03     94.5788E-03
             557     258.213E-03     258.539E-03     258.689E-03
             558     154.665E-03     135.750E-03     158.417E-03
             559     59.5192E-03     46.2065E-03     65.6883E-03
             560     80.9816E-03     97.1658E-03     62.5275E-03
             561     65.3974E-03     64.5071E-03     67.5995E-03
             562     68.8354E-03     65.0990E-03     88.0915E-03
             563     212.526E-03     239.398E-03     202.234E-03
             564     135.262E-03     135.896E-03     117.898E-03
             565     4.45805E-03     9.07868E-03     16.4450E-03
             566     98.1763E-03     101.848E-03     129.397E-03
             567     83.2492E-03     39.2232E-03     90.0580E-03
             568     139.067E-03     121.769E-03     161.413E-03
             569     151.216E-03     158.174E-03     124.441E-03
             570     257.396E-03     253.822E-03     261.053E-03
             571     198.813E-03     186.263E-03     224.884E-03
             572     127.637E-03     101.430E-03     135.054E-03
             573              0.              0.              0.
             574     234.762E-03     236.804E-03     239.337E-03
             575     257.992E-03     272.382E-03     251.663E-03
             576     186.719E-03     207.817E-03     205.089E-03
             577     100.855E-03     122.668E-03     96.7226E-03
             578     8.24112E-03     22.7307E-03     10.1689E-03
             579     191.191E-03     197.453E-03     177.738E-03
             580     143.657E-03     164.362E-03     151.040E-03
             581     57.5871E-03     18.9792E-03     61.6112E-03
             582     262.729E-03     270.618E-03     259.916E-03
             583     265.712E-03     267.906E-03     265.008E-03
             584     138.121E-03     113.865E-03     126.735E-03
             585     33.7339E-03     34.3829E-03     38.1783E-03
             586     57.0934E-03     78.5011E-03     79.7782E-03
             587     68.3418E-03     70.4270E-03     62.2210E-03
             588     28.2710E-03     29.1762E-03     39.3525E-03
             589     250.543E-03     246.457E-03     258.374E-03
             590     261.395E-03     271.390E-03     256.768E-03
             591     162.429E-03     168.564E-03     187.244E-03
             592     212.050E-03     194.747E-03     218.096E-03
             593     256.582E-03     251.519E-03     273.375E-03
             594     158.048E-03     170.859E-03     172.725E-03
             595     134.562E-03     111.170E-03     131.987E-03
             596     41.2185E-03     35.5756E-03     46.6747E-03
             597     227.625E-03     208.869E-03     219.457E-03
             598     191.767E-03     142.844E-03     151.229E-03
             599     263.853E-03     250.851E-03     250.429E-03
             600     105.131E-03     113.307E-03     106.289E-03
             601     218.694E-03     190.177E-03     191.348E-03
             602     117.219E-03     98.7664E-03     99.9030E-03
             603     272.862E-03     277.085E-03     264.181E-03
             604     123.420E-03     115.325E-03     103.488E-03
             605     67.2662E-03     76.5458E-03     88.2130E-03
             606     300.000E-03     300.000E-03     300.000E-03
             607     300.000E-03     300.000E-03     300.000E-03
             608     138.292E-03     136.221E-03     137.363E-03
             609     209.102E-03     213.408E-03     206.950E-03
             610     243.213E-03     253.137E-03     248.371E-03
             611     267.181E-03     266.206E-03     270.674E-03
             612     176.954E-03     159.848E-03     171.775E-03
             613     258.680E-03     260.376E-03     261.179E-03
             614     182.977E-03     191.657E-03     187.126E-03
             615     163.306E-03     191.371E-03     158.025E-03
             616     142.461E-03     140.326E-03     174.245E-03
             617     243.471E-03     255.417E-03     242.861E-03
             618     51.2895E-03     55.8612E-03     39.4508E-03
             619     121.392E-03     161.288E-03     102.177E-03
             620     39.2941E-03     41.5486E-03     32.0152E-03
             621     33.5358E-03     48.2581E-03     36.5617E-03
             622     218.125E-03     210.519E-03     200.891E-03
             623     255.761E-03     269.184E-03     252.900E-03
             624     72.0144E-03     79.3973E-03     79.4309E-03
             625     101.784E-03     119.707E-03     104.617E-03
             626     243.551E-03     247.690E-03     257.091E-03
             627     235.786E-03     244.244E-03     220.599E-03
             628     74.0545E-03     49.3707E-03     101.555E-03
             629     102.648E-03     83.9930E-03     77.8852E-03
             630     194.442E-03     218.289E-03     197.279E-03
             631     270.914E-03     270.899E-03     268.852E-03
             632     29.5117E-03     33.9734E-03     28.2508E-03
             633     97.5276E-03     73.2082E-03     130.772E-03
             634     37.8974E-03     47.7205E-03     23.8463E-03
             635     131.804E-03     88.0203E-03     148.041E-03
             636     293.843E-03     281.383E-03     289.927E-03
             637     15.5880E-03     71.6656E-03     66.6734E-03
             638     33.3052E-03     28.5416E-03     41.5693E-03
             639     216.347E-03     210.730E-03     225.078E-03
             640     229.291E-03     220.374E-03     245.304E-03
             641     68.9239E-03     66.7808E-03     78.1767E-03
             642     108.043E-03     119.534E-03     92.6976E-03
             643     36.5074E-03     47.7599E-03     29.4664E-03
             644     220.762E-03     249.582E-03     196.834E-03
             645     244.183E-03     272.457E-03     226.215E-03
             646     9.21896E-03     5.94495E-03     20.2511E-03
             647              0.              0.              0.
             648     200.646E-03     173.517E-03     185.078E-03
             649     270.733E-03     275.921E-03     266.199E-03
             650    -3.51211E-03     10.4102E-03     11.7392E-03
             651     41.2630E-03     79.2587E-03     78.5357E-03
             652     253.405E-03     275.356E-03     246.053E-03
             653              0.              0.              0.
             654     258.541E-03     281.958E-03     254.745E-03
             655     159.440E-03     154.399E-03     167.603E-03
             656     127.921E-03     162.691E-03     161.769E-03
             657     23.9685E-03     34.7834E-03     22.1506E-03
             658     274.572E-03     267.864E-03     276.470E-03
             659     104.903E-03     110.976E-03     74.7537E-03
             660     300.000E-03     300.000E-03     300.000E-03
             661     274.909E-03     274.054E-03     276.419E-03
             662     94.7639E-03     80.1431E-03     113.405E-03
             663     233.760E-03     237.089E-03     234.392E-03
             664     32.0552E-03     37.7471E-03     15.1697E-03
             665     205.359E-03     211.157E-03     223.169E-03
             666     286.050E-03     280.280E-03     278.118E-03
             667    -2.14337E-03     32.9265E-03     34.2735E-03
             668     160.562E-03     208.734E-03     148.635E-03
             669     100.669E-03     132.792E-03     119.809E-03
             670     48.5161E-03     43.0106E-03     49.5073E-03
             671     247.562E-03     230.077E-03     274.496E-03
             672     129.258E-03     160.972E-03     133.557E-03
             673     98.3586E-03     94.5933E-03     93.0713E-03
             674     104.311E-03     107.176E-03     81.2266E-03
             675     209.330E-03     183.430E-03     204.980E-03
             676     300.000E-03     300.000E-03     300.000E-03
             677     125.773E-03     143.091E-03     158.466E-03
             678     119.974E-03     132.737E-03     74.6949E-03
             679     35.8276E-03     25.1875E-03     40.9783E-03
             680              0.              0.              0.
             681     10.3802E-03     19.1142E-03     20.4875E-03
             682     177.521E-03     171.056E-03     178.404E-03
             683     300.000E-03     300.000E-03     300.000E-03
             684     113.472E-03     122.870E-03     141.683E-03
             685     300.000E-03     300.000E-03     300.000E-03
             686     41.6070E-03     33.4140E-03     43.7599E-03
             687     39.6066E-03     22.5405E-03     47.8365E-03
             688     213.087E-03     239.556E-03     210.774E-03
             689     72.8674E-03     65.4466E-03     76.9101E-03
             690     134.819E-03     119.046E-03     178.149E-03
             691     257.363E-03     274.282E-03     253.201E-03
             692     178.080E-03     177.292E-03     150.757E-03
             693     300.000E-03     300.000E-03     300.000E-03
             694     300.000E-03     300.000E-03     300.000E-03
             695     4.30654E-03     19.6492E-03     11.4985E-03
             696    -3.74906E-03     10.3944E-03     9.60682E-03
             697     300.000E-03     300.000E-03     300.000E-03
             698     250.430E-03     241.647E-03     273.423E-03
             699     111.275E-03     111.047E-03     117.024E-03
             700     166.402E-03     180.369E-03     162.401E-03
             701     109.046E-03     123.993E-03     120.959E-03
             702     40.7405E-03     41.3404E-03     39.4698E-03
             703     39.6830E-03     44.8194E-03     22.4862E-03
             704     56.8413E-03     58.1674E-03     51.2277E-03
             705     260.496E-03     255.740E-03     280.867E-03
             706     170.927E-03     201.608E-03     155.177E-03
             707     72.6593E-03     127.086E-03     132.466E-03
             708     74.4535E-03     80.7185E-03     33.3159E-03
             709     84.0751E-03     57.8822E-03     92.2245E-03
             710     240.846E-03     217.406E-03     223.733E-03
             711     109.822E-03     130.305E-03     83.5807E-03
             712     54.1886E-03     73.6705E-03     29.9364E-03
             713     30.1404E-03     34.7259E-03     31.5729E-03
             714     38.8318E-03     43.2858E-03     33.7580E-03
             715     15.1442E-03     18.1890E-03     24.1669E-03
             716     190.478E-03     205.365E-03     196.608E-03
             717     261.134E-03     258.310E-03     270.933E-03
             718     66.8586E-03     77.0495E-03     58.0184E-03
             719     116.661E-03     161.476E-03     167.516E-03
             720     191.581E-03     191.996E-03     219.814E-03
             721     300.000E-03     300.000E-03     300.000E-03
             722              0.              0.              0.
             723     254.710E-03     266.861E-03     252.812E-03
             724     38.9972E-03     21.5685E-03     43.3656E-03
             725     33.0204E-03     36.5022E-03     8.93269E-03
             726     143.653E-03     139.886E-03     133.290E-03
             727     286.459E-03     280.152E-03     295.830E-03
             728     123.692E-03     134.181E-03     116.502E-03
             729     300.000E-03     300.000E-03     300.000E-03
             730     260.906E-03     287.680E-03     250.313E-03
             731     172.392E-03     153.608E-03     184.146E-03
             732     267.698E-03     261.772E-03     282.847E-03
             733              0.              0.              0.
             734     11.7187E-03     20.3364E-03     4.02050E-03
             735     207.957E-03     210.831E-03     220.948E-03
             736     239.546E-03     221.569E-03     215.946E-03
             737              0.              0.              0.
             738     153.616E-03     142.790E-03     201.361E-03
             739     234.122E-03     232.119E-03     230.113E-03
             740     105.784E-03     88.1944E-03     110.462E-03
             741     300.000E-03     300.000E-03     300.000E-03
             742              0.              0.              0.
             743     300.000E-03     300.000E-03     300.000E-03
             744     191.469E-03     205.389E-03     172.038E-03
             745     117.167E-03     113.052E-03     132.483E-03
             746     275.035E-03     228.198E-03     224.399E-03
             747     154.362E-03     184.486E-03     168.756E-03
             748              0.              0.              0.
             749     260.308E-03     276.939E-03     255.343E-03
             750     12.7719E-03     28.6721E-03     10.2939E-03
             751     199.081E-03     182.398E-03     172.494E-03
             752     274.255E-03     269.150E-03     287.883E-03
             753     298.207E-03     270.743E-03     273.499E-03
             754     300.000E-03     300.000E-03     300.000E-03
             755     300.000E-03     300.000E-03     300.000E-03
             756              0.              0.              0.
             757     267.586E-03     264.001E-03     282.100E-03
             758     186.382E-03     219.431E-03     208.902E-03
             759     268.301E-03     265.327E-03     289.927E-03
             760              0.              0.              0.
             761     246.086E-03     227.757E-03     245.709E-03
             762     120.435E-03     111.868E-03     124.620E-03
             763     19.5798E-03     41.9974E-03     41.3306E-03
             764     274.056E-03     274.626E-03     266.642E-03
             765     226.134E-03     225.606E-03     206.489E-03
             766     85.0145E-03     86.6619E-03     103.362E-03
             767     32.4688E-03     31.8069E-03     35.9914E-03
             768     255.229E-03     224.562E-03     223.191E-03
             769     159.407E-03     139.686E-03     188.576E-03
             770     152.039E-03     152.018E-03     173.074E-03
             771     238.742E-03     235.935E-03     280.616E-03
             772     279.078E-03     273.230E-03     290.274E-03
             773     160.215E-03     163.627E-03     170.994E-03
             774     58.2812E-03     57.3584E-03     59.1985E-03
             775     248.632E-03     248.986E-03     257.149E-03
             776     39.1183E-03     42.8975E-03     30.1309E-03
             777     50.4237E-03     48.8986E-03     46.8842E-03
             778     146.644E-03     190.088E-03     128.186E-03
             779              0.              0.              0.
             780     206.683E-03     207.727E-03     213.608E-03
             781     70.2306E-03     75.0797E-03     66.8765E-03
             782     151.836E-03     181.461E-03     128.226E-03
             783     40.2351E-03     44.5862E-03     19.8701E-03
             784     159.661E-03     164.780E-03     158.689E-03
             785     282.041E-03     286.935E-03     275.012E-03
             786     151.951E-03     157.541E-03     142.148E-03
             787     53.4121E-03     59.4355E-03     36.6189E-03
             788     237.711E-03     247.453E-03     237.260E-03
             789     9.86755E-03     18.9527E-03     16.3416E-03
             790     157.953E-03     177.009E-03     187.268E-03
             791     266.477E-03     213.785E-03     219.105E-03
             792     69.0819E-03     82.1316E-03     42.6614E-03
             793     257.735E-03     255.367E-03     271.353E-03
             794              0.              0.              0.
             795     253.146E-03     250.294E-03     268.429E-03
             796     52.0875E-03     50.4834E-03     43.9235E-03
             797     143.155E-03     155.067E-03     145.193E-03
             798     281.927E-03     272.658E-03     278.800E-03
             799     66.9527E-03     90.2552E-03     60.4206E-03
             800     24.2835E-03     16.7213E-03     33.8556E-03
             801              0.              0.              0.
             802     32.7844E-03     86.9715E-03     90.8233E-03
             803     94.7764E-03     94.7027E-03     93.0964E-03
             804     82.6958E-03     103.326E-03     113.629E-03
             805     250.028E-03     248.092E-03     260.769E-03
             806              0.              0.              0.
             807              0.              0.              0.
             808     30.0003E-03     11.7534E-03     35.6762E-03
             809     300.000E-03     300.000E-03     300.000E-03
             810              0.              0.              0.
             811     187.039E-03     185.721E-03     180.465E-03
             812     151.119E-03     166.671E-03     138.487E-03
             813     160.484E-03     153.396E-03     134.853E-03
             814     207.704E-03     204.029E-03     238.852E-03
             815     277.968E-03     272.467E-03     285.543E-03
             816     49.7136E-03     52.6768E-03     51.8668E-03
             817     205.992E-03     204.905E-03     221.065E-03
             818     206.964E-03     220.255E-03     205.981E-03
             819     203.783E-03     192.281E-03     193.664E-03


  Minimum           -14.6808E-03              0.              0.
         At Node              71             810             810

  Maximum            310.861E-03     300.000E-03     300.000E-03
         At Node              41             693             693

           Total         123.336         124.433         124.289


